{
    "result":"SUCCESS",
    "msgSaida":[
        {
            "id": 1,
            "recordName": "Fulano de Tal",
            "sector": "Oeste",
            "subSector": "Baixo",
            "row": "G-17",
            "chairNumber": "123",
            "issueDate": "2018-09-22",
            "validityDate": "2019-09-22",
            "active": true
        },
        {
            "id": 2,
            "recordName": "Fulano de Tal",
            "sector": "Oeste",
            "subSector": "Baixo",
            "row": "G-17",
            "chairNumber": "124",
            "issueDate": "2018-09-22",
            "validityDate": "2019-09-22",
            "active": true
        },
        {
            "id": 3,
            "recordName": "Fulano de Tal",
            "sector": "Oeste",
            "subSector": "Central",
            "row": "G-17",
            "chairNumber": "125",
            "issueDate": "2018-09-22",
            "validityDate": "2019-09-22",
            "active": true
        },
        {
            "id": 4,
            "recordName": "Beltrano de Tal",
            "sector": "Leste",
            "subSector": "Central",
            "row": "F-23",
            "chairNumber": "23",
            "issueDate": "2017-06-13",
            "validityDate": "2019-11-18",
            "active": true
        },
        {
            "id": 5,
            "recordName": "Beltrano de Tal",
            "sector": "Leste",
            "subSector": "Central",
            "row": "F-23",
            "chairNumber": "24",
            "issueDate": "2017-06-13",
            "validityDate": "2019-11-18",
            "active": true
        },
        {
            "id": 6,
            "recordName": "Beltrano de Tal",
            "sector": "Leste",
            "subSector": "Baixo",
            "row": "F-23",
            "chairNumber": "25",
            "issueDate": "2017-06-13",
            "validityDate": "2019-11-18",
            "active": false
        }
    ],
    "error":[]
}