{
    "result":"SUCCESS",
    "msgSaida":[
        {
            "label":"Facebook",
            "visualClass":"fab fa-facebook",
            "actionLink":"https://www.facebook.com"
        },
        {
            "label":"Twitter",
            "visualClass":"fab fa-twitter",
            "actionLink":"https://www.twitter.com"
        },
        {
            "label":"Instagram",
            "visualClass":"fab fa-instagram",
            "actionLink":"https://www.instagram.com"
        },
        {
            "label":"Youtube",
            "visualClass":"fab fa-youtube",
            "actionLink":"https://www.youtube.com"
        },
        {
            "label":"Flickr",
            "visualClass":"fab fa-flickr",
            "actionLink":"https://www.flickr.com"
        },
        {
            "label":"Spotify",
            "visualClass":"fab fa-spotify",
            "actionLink":"https://www.spotify.com"
        }
    ],
    "error":[]
}